{
  "close2u": {
    "numero": "",
    "tipoIntegracion": "FACTUREFACIL",
    "tipoPlantilla": "01",
    "tipoRegistro": "PRECIOS_SIN_IGV"
  },
  "comprobanteAjustado": {
    "numero": "25",
    "serie": "FFA1",
    "tipoDocumento": "FACTURA"
  },
  "datosDocumento": {
    "fechaEmision": "2018-01-01",
    "formaPago": "Al Contado",
    "glosa": "XD",
    "moneda": "PEN",
    "ordencompra": "",
    "serie": "FFC1"
  },
  "detalleDocumento": [
    {
      "cantidad": 2,
      "codigoProducto": "XLR01",
      "descripcion": "GOKU",
      "informacionAdicional": [],
      "numeroOrden": 1,
      "tipoAfectacion": "GRAVADO_OPERACION_ONEROSA",
      "unidadMedida": "UNIDAD_BIENES",
      "valorVentaUnitarioItem": 10
    }
  ],
  "emisor": {
    "nombreComercial": "BRAVO DIAZ FERNANDO JESUS",
    "nombreLegal": "BRAVO DIAZ FERNANDO JESUS",
    "numeroDocumentoIdentidad": "10713951701",
    "tipoDocumentoIdentidad": "RUC"
  },
  "informacionAdicional": {
    "coVendedor": "cachorro@close2u.pe",
    "vendedor": "Bravo Diaz,Fernando"
  },
  "motivo": "ANULACION_OPERACION",
  "receptor": {
    "correo": "soporte@close2u.pe",
    "correoCopia": "",
    "domicilioFiscal": {
      "direccion": "AV. SANTA ROSA LT. 01 MZ. N A.H. EL AMAUTA 2DO SECTOR - LIMA LIMA  EL AGUSTINO",
      "pais": "PERU",
      "urbanizacion": ""
    },
    "nombreComercial": "NUÑEZ ANGELES HEINER",
    "nombreLegal": "NUÑEZ ANGELES HEINER",
    "numeroDocumentoIdentidad": "10756713685",
    "tipoDocumentoIdentidad": "RUC"
  },
  "sector": {}
}