{
  "anticipos": null,
  "close2u": {
    "numero": "",
    "tipoIntegracion": "FACTUREFACIL",
    "tipoPlantilla": "01",
    "tipoRegistro": "PRECIOS_CON_IGV"
  },
  "datosDocumento": {
    "condici onPago": null,
    "fechaEmision": "2017-12-21",
    "fechaVencimiento": null,
    "formaPago": "Al Contado",
    "glosa": "",
    "moneda": "PEN",
    "numero": null,
    "ordenCompra": null,
    "ordencompra": "",
    "puntoEmisor": null,
    "serie": "FFA1"
  },
  "descuentoGlobal": null,
  "detalleDocumento": [
    {
      "aliasProducto": null,
      "cantidad": 1,
      "codigoProducto": "P001",
      "descripcion": "PRODUCTO 1",
      "descuento": null,
      "informacionAdicional": [],
      "isc": null,
      "numeroOrden": 1,
      "precioVentaUnitarioItem": null,
      "tipoAfectacion": "GRAVADO_OPERACION_ONEROSA",
      "unidadMedida": "UNIDAD_BIENES",
      "valorReferencialUnitarioItem": null,
      "valorVentaUnitarioItem": 100
    }
  ],
  "detraccion": null,
  "emisor": {
    "correo": null,
    "correoCopia": null,
    "domicilioFiscal": null,
    "nombreComercial": "BRAVO DIAZ FERNANDO JESUS",
    "nombreLegal": "BRAVO DIAZ FERNANDO JESUS",
    "numeroDocumentoIdentidad": "10713951701",
    "tipoDocumentoIdentidad": "RUC"
  },
  "exportacion": null,
  "facturaGuia": null,
  "informacionAdicional": {
    "coCentro": null,
    "coDistribuidor": null,
    "coVendedor": "cachorro@close2u.pe",
    "direccionDistribuidor": null,
    "documento": null,
    "fechaCreacion": null,
    "fechaIngreso": null,
    "fechaSalida": null,
    "flexString01": null,
    "horaCreacion": null,
    "numeroRegistro": null,
    "placa": null,
    "ticket": null,
    "tiempo": null,
    "tipoOperacion": "VENTA_INTERNA",
    "vendedor": "Bravo Diaz,Fernando"
  },
  "otrosCargos": null,
  "percepcion": null,
  "receptor": {
    "correo": "fernando.bravo@close2u.pe",
    "correoCopia": "",
    "domicilioFiscal": {
      "departamento": null,
      "direccion": "AV. REPUBLICA DE CHILE NRO. 751 DPTO. C - LIMA LIMA  JESÚS MARÍA",
      "distrito": null,
      "pais": "PERU",
      "provincia": null,
      "ubigeo": null,
      "urbanizacion": ""
    },
    "nombreComercial": "CLOSE2U S.A.C.",
    "nombreLegal": "CLOSE2U S.A.C.",
    "numeroDocumentoIdentidad": "20549776974",
    "tipoDocumentoIdentidad": "RUC"
  },
  "referencias": null,
  "sector": {
    "tipoCargo": null,
    "tipoTotalDescuentos": null
  }
}